SDR: -6.482070 -4.772076 -4.925489 -4.245915 -4.206761 -7.356601 -9.472579 -3.222552 -5.234644 -7.880981 -5.881929 -10.802132 -5.580377 -6.045725 -1.837124 -3.475084 -5.402122 -5.992370 -5.995873 -5.401483 -7.705063 -3.603482 -5.877447 -7.231652 -6.044804 -4.313688 -6.437099 -6.196005 -2.369160 -6.732443 -6.883557 -5.907706 -4.946894 -5.023966 -5.026117 -4.492199 -5.666230 -3.729810 -5.865273 -3.192013 -3.625091 -7.286641 -4.931974 -9.001138 -3.540409 -4.004805 -6.356806 -3.355762 -2.560112 -4.843158 -3.514774 -5.264324 -3.514776 -8.441303 -4.381959 -4.051570 -4.491400 -4.843277 -8.916248 -5.329349 -4.006111 -1.621292 -7.335865 -2.480961 -4.118483 -1.952746 -4.831501 -4.746835 -5.103885 -5.133934 -5.063034 -4.220207 -4.902254 -5.884539 -6.763908 -4.143255 -4.056092 -5.124615 -5.473902 -4.574539 -2.053968 -5.525753 -4.541250 -4.029769 -2.326358 -8.944724 -9.058051 -4.472834 -5.374622 -6.271261 -6.653643 -5.061719 -4.240469 -6.292483 -3.350194 -5.109610 -5.698774 -10.025248 -3.919537 -9.152873 -7.165466 -4.854343 -5.050469 -5.127595 -5.483943 -4.236708 -2.152818 -2.577385 -6.964088 -5.703842



SIR: -5.684793 -3.798283 -3.929294 -3.453428 -3.434262 -6.417793 -8.665525 -2.613448 -4.395615 -6.803871 -5.127412 -9.941977 -4.035905 -4.256858 -0.780554 -2.794941 -4.543564 -5.114107 -5.095109 -4.818776 -6.742978 -2.800644 -5.120820 -6.347303 -5.189458 -3.592150 -5.636299 -5.243727 -1.794471 -5.922712 -6.082716 -4.829372 -4.081036 -4.076807 -4.131123 -3.696997 -4.628637 -2.950660 -4.961780 -2.331269 -2.891141 -6.276209 -4.129117 -8.220984 -2.741496 -3.373245 -5.236131 -2.647014 -1.931108 -2.453769 -2.762224 -4.105178 -2.068467 -6.870440 -3.235557 -2.736656 -3.539727 -3.725790 -7.791025 -4.540086 -3.144070 0.829911 -5.110074 -0.943596 -2.142090 -0.222625 -3.291192 -1.636022 -3.136458 -4.302162 -4.187112 -3.535180 -4.020687 -4.709092 -5.659653 -3.172392 -3.100911 -4.176426 -4.394758 -3.213121 -1.227395 -4.078646 -3.387597 -2.545208 -1.492233 -8.106316 -7.975219 -3.206801 -4.443865 -5.274015 -5.794217 -3.926238 -3.449172 -5.394506 -2.469571 -4.354403 -4.502128 -9.124579 -2.952442 -8.282614 -6.404272 -4.244717 -4.320937 -4.253691 -4.501429 -3.554703 -1.670086 -2.055613 -5.991712 -4.824466


SAR: 7.995385 7.510989 7.362442 8.603820 8.731030 7.066730 7.452714 10.120079 8.060180 6.328905 8.381474 7.014140 5.140156 4.310770 8.237407 9.541225 7.911225 7.661234 7.544217 9.666275 6.889705 8.755889 8.369808 7.367625 7.770273 9.004986 7.984781 7.241358 10.698097 7.872142 7.892557 6.734911 7.995741 7.565103 7.822929 8.513260 6.973926 8.847116 7.561540 8.590874 9.150027 6.736930 8.342876 7.669470 8.799646 9.697362 6.448407 9.399147 10.224221 3.300100 9.075970 6.569722 6.130091 4.419298 6.885788 6.368895 7.699953 6.859967 5.958817 8.313347 8.301193 4.646005 2.909795 6.282819 4.463509 6.003752 5.378160 2.070123 4.137337 8.126765 7.910807 9.266654 7.926574 6.339844 6.427059 7.719345 7.821561 7.532068 6.842915 6.033806 9.225008 5.462367 6.806255 5.819999 9.069756 7.341867 6.121893 6.401402 7.549359 7.010696 7.614290 6.722480 8.612289 7.490215 8.430930 8.571504 6.304372 6.875289 7.810919 7.140287 8.071768 9.605943 8.743938 7.903590 7.272363 9.281426 11.552228 11.042533 6.979143 7.725127


NSDR: -6.493489 -4.887990 -4.895706 -4.252525 -4.177099 -7.407326 -9.441487 -3.206745 -5.221753 -7.940793 -5.908152 -10.765212 -5.610542 -6.025358 -1.803021 -3.442104 -5.449057 -5.975227 -5.999508 -5.382068 -7.668787 -3.580639 -5.886336 -7.231583 -6.007567 -4.272970 -6.436104 -6.178521 -2.357864 -6.740896 -6.915080 -5.931115 -4.948415 -5.041139 -5.167013 -4.488419 -5.685800 -3.702847 -5.851905 -3.243864 -3.545337 -7.312865 -4.915795 -9.004232 -3.520220 -3.989761 -6.332154 -3.335886 -2.575396 -4.798816 -3.409189 -5.199562 -3.520232 -8.413933 -4.381286 -4.049773 -4.507091 -4.822748 -8.975282 -5.335212 -3.988951 -1.642375 -7.337748 -2.444717 -4.098029 -1.988081 -4.801467 -4.741940 -5.190506 -5.144024 -5.093845 -4.195230 -4.912894 -5.859736 -6.782213 -4.108988 -4.081132 -5.111987 -5.483023 -4.562933 -2.008065 -5.563098 -4.564530 -4.019803 -2.334462 -8.947147 -9.002858 -4.471079 -5.390459 -6.228549 -6.674080 -5.124724 -4.250689 -6.316214 -3.340737 -4.971335 -5.701851 -10.109034 -3.936368 -9.164841 -7.134401 -4.844961 -5.064363 -5.101711 -5.583308 -4.274640 -2.155956 -2.514917 -6.842052 -5.746021 
